{
    "nom": "2DAMvi",
    "alumnes": [
        {
            "nom":"Pau",
            "edat":19,
            "notaMitja":9.2,
            "assignaturaPreferida":{
                "codi":"M6",
                "nom":"acces a Dades",
                "horesSetmana":3
            },
            "vots":[true,true,true,false,false]
        },
        {
            "nom":"Figo",
            "edat":14,
            "notaMitja":6.9,
            "assignaturaPreferida":{
                "codi":"M10",
                "nom":"ERP",
                "horesSetmana":536
            },
            "vots":[true,true,true]
        },
        {
            "nom":"Iker",
            "edat":31,
            "notaMitja":9.9,
            "assignaturaPreferida":{
                "codi":"M17",
                "nom":"Programacio de Videojocs",
                "horesSetmana":7
            },
            "vots":[false,false,false,false,false]
        }
    ]
}